{
    "/js/manifest.js": "/js/manifest.js?id=7db827d654313dce4250",
    "/js/vendor.js": "/js/vendor.js?id=45e1dc06bbf3fb7ea1bc",
    "/js/app.js": "/js/app.js?id=ae2693c90c5b2999cf24",
    "/css/vendor.css": "/css/vendor.css?id=cd4cd340233401bcc9cc",
    "/css/app.css": "/css/app.css?id=26b92a439ca1a9a77db7",
    "/js/vue.js": "/js/vue.js?id=2a654925a0a9412daad8"
}
